…
Separate the data into groups by Experiment and Cultivar

Summarize AUDPC for each group

Spread the AUDPC data into separate columns by Experiment

Here, we use the group_by() function to split the rows into specific groups.

> tmp <- group_by(fungicide.tidy, Experiment, Cultivar)
> tmp

Source: local data frame [54 x 4]
Groups: Experiment, Cultivar [6]

# A tibble: 54 x 4
   Experiment Julian.Date                  Cultivar Severity
        <chr>       <int>                     <chr>    <dbl>
 1    control          97 TwentyOneThirtySevenWheat     0.00
 2    control         104 TwentyOneThirtySevenWheat     0.00
 3    control         111 TwentyOneThirtySevenWheat     0.00
 4    control         118 TwentyOneThirtySevenWheat     0.00
 5    control         125 TwentyOneThirtySevenWheat     0.00
 6    control         132 TwentyOneThirtySevenWheat     0.00
 7    control         139 TwentyOneThirtySevenWheat     2.34
 8    control         146 TwentyOneThirtySevenWheat     7.56
 9    control         154 TwentyOneThirtySevenWheat    28.78
10    control          97               CutterWheat     0.00
# ... with 44 more rows
…
